{
  "railsUrl":"http://main.backend.itsanovelidea.com",
  "redisHost":"redis.backend.itsanovelidea.com",
  "mongoHost":"mongo.backend.itsanovelidea.com:27017",
  "photosPort":80,
  "collaborativePort":443
}