[ 
    { 
        "image": "242929592693.dkr.ecr.us-east-1.amazonaws.com/itsanovelidea-main:latest",
        "name": "itsanovelidea-main",
        "memoryReservation": 200,
        "secrets": [{
            "name": "API_KEY",
            "valueFrom": "arn:aws:secretsmanager:us-east-1:242929592693:secret:itsanovelidea-photos-apikey-QnGFUS"
        },
        {
            "name": "EMAIL_PASSWORD",
            "valueFrom": "arn:aws:secretsmanager:us-east-1:242929592693:secret:EMAIL_PASSWORD-pUFnEE"
        },
        {
            "name": "REDIS_PASSWORD",
            "valueFrom": "arn:aws:secretsmanager:us-east-1:242929592693:secret:REDIS_PASSWORD-N5DmJe"
        },{
            "name": "MYSQL_ROOT_PASSWORD",
            "valueFrom": "arn:aws:secretsmanager:us-east-1:242929592693:secret:MYSQL_ROOT_PASSWORD-D6sOdO"
        }],
        "essential":true
    },
    { 
        "image": "242929592693.dkr.ecr.us-east-1.amazonaws.com/itsanovelidea-nginx:latest",
        "name": "itsanovelidea-nginx",
        "essential":true,
        "memoryReservation": 200,
        "portMappings": [
            {
                "containerPort": 80,
                "hostPort": 80
            },
            {
                "containerPort": 443,
                "hostPort": 443
            }
        ],
        "secrets": [{
            "name": "ITSANOVELIDEA_PRIVATE_KEY",
            "valueFrom": "arn:aws:secretsmanager:us-east-1:242929592693:secret:itsanovelidea.com-private_key-BqaWpA"
        },
        {
            "name": "ITSANOVELIDEA_PUBLIC_CERT",
            "valueFrom": "arn:aws:secretsmanager:us-east-1:242929592693:secret:itsanovelidea.com-certificate-uSCMHk"
        },
        {
            "name": "ITSANOVELIDEA_CERTIFICATE_CHAIN",
            "valueFrom": "arn:aws:secretsmanager:us-east-1:242929592693:secret:itsanovelidea.com-certificate_chain-9i7e82"
        }],
        "links": [
          "itsanovelidea-main"
        ]
    },
    { 
        "image": "242929592693.dkr.ecr.us-east-1.amazonaws.com/register-ec2-service:latest",
        "name": "register-ec2-service",
        "environment" : [
            {"name": "INSTANCE_ID", "value" : "main" },
            {"name":"SERVICE_ID","value":"srv-cjvoeun7cljj35tl"},
            {"name":"AWS_DEFAULT_REGION","value":"us-east-1"}
        ],
        "secrets": [{
          "name": "AWS_ACCESS_KEY_ID",
          "valueFrom": "arn:aws:secretsmanager:us-east-1:242929592693:secret:AWS_ACCESS_KEY_ID-lCiQO5"
        },{
            "name": "AWS_SECRET_ACCESS_KEY",
            "valueFrom": "arn:aws:secretsmanager:us-east-1:242929592693:secret:AWS_SECRET_ACCESS_KEY-WZ7OOz"
        }],
        "essential":false,
        "memoryReservation": 200
    }
]
