[ 
    { 
        "image": "242929592693.dkr.ecr.us-east-1.amazonaws.com/itsanovelidea-photos:latest",
        "name": "itsanovelidea-photos",
        "memoryReservation": 200,
        "environment" : [
            { "name" : "NODE_ENV", "value" : "default" }
        ],
        "secrets": [{
          "name": "PIXABAY_API_KEY",
          "valueFrom": "arn:aws:secretsmanager:us-east-1:242929592693:secret:pixabay-api-key-zsUnbr"
        },{
            "name": "API_KEY",
            "valueFrom": "arn:aws:secretsmanager:us-east-1:242929592693:secret:itsanovelidea-photos-apikey-QnGFUS"
        },
        {
            "name": "REDIS_PASSWORD",
            "valueFrom": "arn:aws:secretsmanager:us-east-1:242929592693:secret:REDIS_PASSWORD"
        }],
        "portMappings": [
            {
                "containerPort": 80,
                "hostPort": 80
            },
            {
                "containerPort": 443,
                "hostPort": 443
            }
        ],
        "essential":true
    },
    { 
        "image": "242929592693.dkr.ecr.us-east-1.amazonaws.com/register-ec2-service:latest",
        "name": "register-ec2-service",
        "environment" : [
            {"name": "INSTANCE_ID", "value" : "photos" },
            {"name":"SERVICE_ID","value":"srv-2dlo73f4oe36s6gv"},
            {"name":"AWS_DEFAULT_REGION","value":"us-east-1"}
        ],
        "secrets": [{
          "name": "AWS_ACCESS_KEY_ID",
          "valueFrom": "arn:aws:secretsmanager:us-east-1:242929592693:secret:AWS_ACCESS_KEY_ID-lCiQO5"
        },{
            "name": "AWS_SECRET_ACCESS_KEY",
            "valueFrom": "arn:aws:secretsmanager:us-east-1:242929592693:secret:AWS_SECRET_ACCESS_KEY-WZ7OOz"
        }],
        "essential":false,
        "memoryReservation": 200
    }
]
