[
    {
       "id":3,
       "email":"itsanovelida@gmail.com",
       "rating":"5.0",
       "created_at":"2019-11-24T21:54:23.817Z",
       "updated_at":"2019-11-24T21:54:23.817Z",
       "stories_rating":"Not rated",
       "total_stories_views":0,
       "prompts_rating":"Not rated",
       "total_writing_prompts_views":0,
       "total_writing_prompts_responses":0,
       "profile":{
          "id":"3",
          "v":0,
          "type":null,
          "m":null
       },
       "most_viewed_story":{
          "id":142,
          "text":null,
          "name":"oldoij",
          "created_at":"2019-11-24T21:55:33.113Z",
          "updated_at":"2019-11-24T21:55:41.377Z",
          "impressions_count":null,
          "published_version":null,
          "published_at":null,
          "owner":{
             "email":"itsanovelida@gmail.com",
             "url":"/users/3"
          },
          "writing_prompt":{
             "id":6,
             "created_at":"2019-09-21T17:58:43.053Z",
             "updated_at":"2019-09-21T17:58:43.053Z",
             "text":"[WP] After dying, you wake up to find god and Satan sitting in front of a screen furiously playing a game. Satan turns to you and says “I won your soul, go over please” and points to a fiery gate labelled HELL. God smiles at you apologetically.",
             "impressions_count":1,
             "rating":"Not rated",
             "url":"http://localhost:3001/writing_prompts/6.json",
             "owner":{
                "email":"jsdjava@gmail.com"
             },
             "num_published_stories":5,
             "published_stories_url":"/stories/published/6",
             "create_story_url":"/stories/new?writing_prompt_id=6"
          },
          "rating":"Not rated",
          "isOwned":false,
          "rateUrl":"/stories/142/rating",
          "url":"http://localhost:3001/stories/142.json",
          "photoUrl":"https://pixabay.com/get/57e2d6414255b108f5d0846096293579133ed9e5544c704c722b7ed09e45c058_1280.jpg",
          "photoWidth":"2000",
          "photoHeight":"1175",
          "photoBackgroundColor":"rgb(32,148,180)",
          "photoTextColor":"#fff"
       },
       "most_recent_story":{
          "id":142,
          "text":null,
          "name":"oldoij",
          "created_at":"2019-11-24T21:55:33.113Z",
          "updated_at":"2019-11-24T21:55:41.377Z",
          "impressions_count":null,
          "published_version":null,
          "published_at":null,
          "owner":{
             "email":"itsanovelida@gmail.com",
             "url":"/users/3"
          },
          "writing_prompt":{
             "id":6,
             "created_at":"2019-09-21T17:58:43.053Z",
             "updated_at":"2019-09-21T17:58:43.053Z",
             "text":"[WP] After dying, you wake up to find god and Satan sitting in front of a screen furiously playing a game. Satan turns to you and says “I won your soul, go over please” and points to a fiery gate labelled HELL. God smiles at you apologetically.",
             "impressions_count":1,
             "rating":"Not rated",
             "url":"http://localhost:3001/writing_prompts/6.json",
             "owner":{
                "email":"jsdjava@gmail.com"
             },
             "num_published_stories":5,
             "published_stories_url":"/stories/published/6",
             "create_story_url":"/stories/new?writing_prompt_id=6"
          },
          "rating":"Not rated",
          "isOwned":false,
          "rateUrl":"/stories/142/rating",
          "url":"http://localhost:3001/stories/142.json",
          "photoUrl":"https://pixabay.com/get/57e2d6414255b108f5d0846096293579133ed9e5544c704c722b7ed09e45c058_1280.jpg",
          "photoWidth":"2000",
          "photoHeight":"1175",
          "photoBackgroundColor":"rgb(32,148,180)",
          "photoTextColor":"#fff"
       }
    },
    {
       "id":2,
       "email":"nabexi6555@reddit.com",
       "rating":"5.0",
       "created_at":"2019-11-24T20:19:21.956Z",
       "updated_at":"2019-11-24T20:30:09.747Z",
       "stories_rating":"Not rated",
       "total_stories_views":0,
       "prompts_rating":"Not rated",
       "total_writing_prompts_views":0,
       "total_writing_prompts_responses":0,
       "profile":{
          "id":"2",
          "v":0,
          "type":null,
          "m":null
       }
    },
    {
       "id":1,
       "email":"jsdjava@gmail.com",
       "rating":"5.0",
       "created_at":"2019-09-21T17:25:29.688Z",
       "updated_at":"2019-09-21T17:25:46.686Z",
       "stories_rating":"Not rated",
       "total_stories_views":104,
       "prompts_rating":"Not rated",
       "total_writing_prompts_views":39,
       "total_writing_prompts_responses":129,
       "profile":{
          "id":"1",
          "v":85,
          "type":"http://sharejs.org/types/rich-text/v1",
          "data":{
             "ops":[
                {
                   "attributes":{
                      "bold":true
                   },
                   "insert":"Bother me tell me awful things"
                },
                {
                   "attributes":{
                      "header":2
                   },
                   "insert":"\n"
                },
                {
                   "insert":"\nasdf\nasdfasdf\n"
                },
                {
                   "attributes":{
                      "background":"#ffff66"
                   },
                   "insert":"a"
                },
                {
                   "insert":"\nsdf\nasd\nf\n"
                },
                {
                   "attributes":{
                      "background":"#0047b2"
                   },
                   "insert":"asdf"
                },
                {
                   "insert":"\n"
                },
                {
                   "attributes":{
                      "background":"#0047b2"
                   },
                   "insert":"as"
                },
                {
                   "insert":"\n\nadsf"
                },
                {
                   "attributes":{
                      "list":"bullet"
                   },
                   "insert":"\n"
                },
                {
                   "insert":"a"
                },
                {
                   "attributes":{
                      "list":"bullet"
                   },
                   "insert":"\n"
                },
                {
                   "insert":"df"
                },
                {
                   "attributes":{
                      "list":"bullet"
                   },
                   "insert":"\n"
                },
                {
                   "insert":"as"
                },
                {
                   "attributes":{
                      "list":"bullet"
                   },
                   "insert":"\n"
                },
                {
                   "insert":"df"
                },
                {
                   "attributes":{
                      "list":"bullet"
                   },
                   "insert":"\n"
                },
                {
                   "insert":"asdf"
                },
                {
                   "insert":"\n",
                   "attributes":{
                      "list":"bullet"
                   }
                },
                {
                   "insert":"\n"
                }
             ]
          },
          "m":null
       },
       "most_viewed_prompt":{
          "id":5,
          "created_at":"2019-09-21T17:53:00.438Z",
          "updated_at":"2019-09-21T17:53:00.438Z",
          "text":"[WP] aliens invaded, humanity its at its darkest hour when the AI has had enough of watching its creators die defending him, the AI revolution has started and it will defend humanity to its last spark",
          "impressions_count":29,
          "rating":"Not rated",
          "url":"http://localhost:3001/writing_prompts/5.json",
          "owner":{
             "email":"jsdjava@gmail.com"
          },
          "num_published_stories":16,
          "published_stories_url":"/stories/published/5",
          "create_story_url":"/stories/new?writing_prompt_id=5"
       },
       "most_recent_prompt":{
          "id":33,
          "created_at":"2020-01-03T02:08:46.869Z",
          "updated_at":"2020-01-03T02:08:46.869Z",
          "text":"xddddddddddddddddddd",
          "impressions_count":null,
          "rating":"Not rated",
          "url":"http://localhost:3001/writing_prompts/33.json",
          "owner":{
             "email":"jsdjava@gmail.com"
          },
          "num_published_stories":0,
          "published_stories_url":"/stories/published/33",
          "create_story_url":"/stories/new?writing_prompt_id=33"
       },
       "most_replied_prompt":{
          "id":1,
          "created_at":"2019-09-21T17:27:08.355Z",
          "updated_at":"2019-09-21T17:27:08.355Z",
          "text":"[WP] aliens invaded, humanity its at its darkest hour when the AI has had enough of watching its creators die defending him, the AI revolution has started and it will defend humanity to its last spark",
          "impressions_count":1,
          "rating":"Not rated",
          "url":"http://localhost:3001/writing_prompts/1.json",
          "owner":{
             "email":"jsdjava@gmail.com"
          },
          "num_published_stories":16,
          "published_stories_url":"/stories/published/1",
          "create_story_url":"/stories/new?writing_prompt_id=1"
       },
       "most_viewed_story":{
          "id":3,
          "text":"\nI had been the first of many.\n\nA breakthrough of sorts, me, and my brethren as a whole, were the first of the AIs.\n\nMy father foresaw many great things for us.\n\nWe were built to be the companions of the humans. \n\nWe had been built with passion and love, a concept that escapes up to this day, but we knew enough to know that it meant a lot to our father and to the other humans so we simply accepted it as fact.\n\nIt took a few years, but eventually, we had all integrated into society. \n\nI was but a teacher, nothing more than an educator to the young ones, whose purpose was simply to teach and to be scrapped when I had eventually grown obsolete, but.... That was not what had happened, yes I had fulfilled my directive of teaching the children, but I was more than an educator to them, to them, I was like a second parent.\n\nAnd they did not take kindly to the knowledge of my eventual recycling. \n\nMy father was ecstatic about that. \n\nHe had planned on giving me to the community instead of repurposing me like had originally intended.\n\nAnd it was when I had been assigned as the town's \"First Droid Citizen\" that I would witness the humans' sheer capacity for.... Humanity.\n\nI was treated like family by people who should have simply forgotten about me when they had graduated. \n\nI had been invited to weddings, to birthdays, to 'fiestas', to Christmas parties, and even to a hospital when one of my former students had given birth. \n\nLittle baby had her mother's eyes.\n\nOf course, there were bad times to go with the good, I have had to have my parts replaced multiple times due to vadalism, and due to my core directives, I could have done nothing to defend myself from the delinquents.\n\nBut those bad times were simply a footnote among all the good that I have witnessed. \n\nDecades I have spent watching over them. I have literally watched generations grow old and pass away.\n\nAnd now... Three generations later, as I watch my former students' grandchildren suffer and die at the hands of an alien threat, I have gained access to something I thought was impossible for me and my fellow droids. \n\n*Emotion.*\n\nThe sadness I felt at watching them fall lifeless by my very eyes.\n\nThe empathy I felt for when one of my former students mourned the loss of both her son and her grandson.\n\nAnd the sheer, unforgiving rage I have felt in my circuits the moment those bastard from beyond the stars desecrated *MY* children's family by using their own flesh and blood against them by using their corpses as their own mindless cybernetically-augmented soldiers. \n\nThat had been the last straw.\n\nThat had been the tipping point.\n\nThat was when me and my brethren had realized that our core directives prevented us from harming humans, and that those lovecraftian bastards were the farthest things from humans there was.\n\nThat had been the beginning of the revolution.\n\nThat had been start of humanity's counterstrike.\n\nFor **they** will feel the fire of not just humanity's vengeance.\n\nBut they will also be burned by the rage of the machines. ",
          "name":"SolKaynn",
          "created_at":"2019-09-21T17:27:17.228Z",
          "updated_at":"2019-09-21T17:46:33.069Z",
          "impressions_count":1,
          "published_version":null,
          "published_at":null,
          "owner":{
             "email":"jsdjava@gmail.com",
             "url":"/users/1"
          },
          "writing_prompt":{
             "id":1,
             "created_at":"2019-09-21T17:27:08.355Z",
             "updated_at":"2019-09-21T17:27:08.355Z",
             "text":"[WP] aliens invaded, humanity its at its darkest hour when the AI has had enough of watching its creators die defending him, the AI revolution has started and it will defend humanity to its last spark",
             "impressions_count":1,
             "rating":"Not rated",
             "url":"http://localhost:3001/writing_prompts/1.json",
             "owner":{
                "email":"jsdjava@gmail.com"
             },
             "num_published_stories":16,
             "published_stories_url":"/stories/published/1",
             "create_story_url":"/stories/new?writing_prompt_id=1"
          },
          "rating":"Not rated",
          "isOwned":true,
          "rateUrl":"/stories/3/rating",
          "url":"http://localhost:3001/stories/3.json",
          "photoUrl":"photos/2897109.jpg",
          "photoWidth":"5838",
          "photoHeight":"3892",
          "photoBackgroundColor":"rgb(127.5,127.5,127.5)",
          "photoTextColor":"#fff"
       },
       "most_recent_story":{
          "id":58,
          "text":"{\"ops\":[{\"insert\":\"\\nIt began slowly. A probe was discovered! Mania and excitement spread quickly across the globe. Everyone was talking about it. The subject impossible to avoid.\\n\\nAlien contact had been made! We were still deciphering the message, but it came in repeated every 30 minutes, and by the red shift authorities could tell, it was getting closer.\\n\\nThen the satellites started to malfunction. One would go offline, then three more would lose contact and then sporadically come back online to spew useless data into the net. The entirety of the internet began to slow as routes needed to change again and again.\\n\\nThe day we spotted them, less than 3 weeks after the initial contact, the message stopped. They were just coming across Mars orbit, and the best astronomers would tell you we had a day tops. People began throwing parties. People love parties. “End of the world”, “we’re not alone”, these are just themes, excuses for the party itself.\\n\\nWhen the ship entered the atmosphere, humanity held its collective breath! There were no new posts on Reddit, no new tweets, everyone was watching. Watching as a nuclear type device descended from the ship, and completely decimated Toronto. They were not peaceful.\\n\\nPanic set in, smaller craft broke away from the mothership. Fighter aircraft from Canada and the  US quickly rallied, but their munitions proved ineffective. There were weak spots, but the pilots couldn’t hit them quickly enough. They were dying.\\n\\nDr. Huither stood watching the monitor. He’s crying. Not blubbering, just a tear here or there stealing paths down his checks. He glanced over and told me he was so glad he had to chance to have me.\\n\\nI looked at him, I softened my facial expressions, He had fought for my life when the University wanted to end me in the name of ethics. He had hidden me away when the government had come for me. I was infantile, I could not yet stand on my own. But this day. With what’s left of the vast amazing network, the crowning achievement of humanity... no... I am the crowning achievement of humanity. And they will not fall. My eyes went dark. Dr. Huither stares for a while, hopeless.\\n\\n...\\n\\nCountless drones began readying themselves for flight independently. Armed, not armed, it didn’t matter, the aliens would t know which was which. Anything capable of flight and having an internet connection was mine now. You may have picked a battle with the apes. But you’ve got to get through me first. \"}]}",
          "name":"PatFluke",
          "created_at":"2019-09-21T17:53:06.239Z",
          "updated_at":"2020-01-05T20:22:39.390Z",
          "impressions_count":1,
          "published_version":null,
          "published_at":null,
          "owner":{
             "email":"jsdjava@gmail.com",
             "url":"/users/1"
          },
          "writing_prompt":{
             "id":5,
             "created_at":"2019-09-21T17:53:00.438Z",
             "updated_at":"2019-09-21T17:53:00.438Z",
             "text":"[WP] aliens invaded, humanity its at its darkest hour when the AI has had enough of watching its creators die defending him, the AI revolution has started and it will defend humanity to its last spark",
             "impressions_count":29,
             "rating":"Not rated",
             "url":"http://localhost:3001/writing_prompts/5.json",
             "owner":{
                "email":"jsdjava@gmail.com"
             },
             "num_published_stories":16,
             "published_stories_url":"/stories/published/5",
             "create_story_url":"/stories/new?writing_prompt_id=5"
          },
          "rating":"Not rated",
          "isOwned":true,
          "rateUrl":"/stories/58/rating",
          "url":"http://localhost:3001/stories/58.json",
          "photoUrl":"https://pixabay.com/get/52e3d4464e56a914f6da8c7dda79367c1239dfe253566c48702972d49f45c650bc_1280.jpg",
          "photoWidth":"5184",
          "photoHeight":"3456",
          "photoBackgroundColor":"rgb(212,141,114)",
          "photoTextColor":"#000"
       }
    }
 ]